<mxfile host="app.diagrams.net" modified="2023-08-29T11:47:05.631Z" agent="Mozilla/5.0 (Windows NT 10.0; Win64; x64) AppleWebKit/537.36 (KHTML, like Gecko) Chrome/116.0.0.0 Safari/537.36" etag="cAJgs8DqoWYd3clAUiIx" version="21.6.9" type="gitlab">
  <diagram name="Page-1" id="03018318-947c-dd8e-b7a3-06fadd420f32">
    <mxGraphModel dx="2625" dy="1533" grid="1" gridSize="10" guides="1" tooltips="1" connect="1" arrows="1" fold="1" page="1" pageScale="1" pageWidth="1100" pageHeight="850" background="none" math="0" shadow="0">
      <root>
        <mxCell id="0" />
        <mxCell id="1" parent="0" />
        <mxCell id="677b7b8949515195-2" value="ALL NEWS" style="whiteSpace=wrap;html=1;rounded=0;shadow=0;labelBackgroundColor=none;strokeWidth=1;fontFamily=Verdana;fontSize=28;align=center;comic=1;" parent="1" vertex="1">
          <mxGeometry x="920" y="80" width="190" height="50" as="geometry" />
        </mxCell>
        <mxCell id="677b7b8949515195-9" value="" style="line;strokeWidth=1;html=1;rounded=0;shadow=0;labelBackgroundColor=none;fillColor=none;fontFamily=Verdana;fontSize=14;fontColor=#000000;align=center;comic=1;" parent="1" vertex="1">
          <mxGeometry x="920" y="150" width="1400" height="10" as="geometry" />
        </mxCell>
        <mxCell id="WiNpmOKyQzlzaw_CeeK8-84" value="" style="whiteSpace=wrap;html=1;rounded=0;shadow=0;labelBackgroundColor=none;strokeColor=#000000;strokeWidth=1;fillColor=none;fontFamily=Verdana;fontSize=12;fontColor=#000000;align=center;comic=1;" vertex="1" parent="1">
          <mxGeometry x="910" y="50" width="1410" height="750" as="geometry" />
        </mxCell>
        <mxCell id="WiNpmOKyQzlzaw_CeeK8-85" style="edgeStyle=orthogonalEdgeStyle;rounded=0;orthogonalLoop=1;jettySize=auto;html=1;exitX=0.5;exitY=1;exitDx=0;exitDy=0;" edge="1" parent="1" source="WiNpmOKyQzlzaw_CeeK8-84" target="WiNpmOKyQzlzaw_CeeK8-84">
          <mxGeometry relative="1" as="geometry" />
        </mxCell>
        <mxCell id="WiNpmOKyQzlzaw_CeeK8-86" value="LOGO" style="whiteSpace=wrap;html=1;rounded=0;shadow=0;labelBackgroundColor=none;strokeWidth=1;fontFamily=Verdana;fontSize=28;align=center;comic=1;" vertex="1" parent="1">
          <mxGeometry x="1400" y="80" width="190" height="50" as="geometry" />
        </mxCell>
        <mxCell id="WiNpmOKyQzlzaw_CeeK8-87" value="LOGIN" style="whiteSpace=wrap;html=1;rounded=0;shadow=0;labelBackgroundColor=none;strokeWidth=1;fontFamily=Verdana;fontSize=28;align=center;comic=1;" vertex="1" parent="1">
          <mxGeometry x="1880" y="80" width="190" height="50" as="geometry" />
        </mxCell>
        <mxCell id="WiNpmOKyQzlzaw_CeeK8-88" value="SIGNUP" style="whiteSpace=wrap;html=1;rounded=0;shadow=0;labelBackgroundColor=none;strokeWidth=1;fontFamily=Verdana;fontSize=28;align=center;comic=1;" vertex="1" parent="1">
          <mxGeometry x="2120" y="80" width="190" height="50" as="geometry" />
        </mxCell>
        <mxCell id="WiNpmOKyQzlzaw_CeeK8-90" value="" style="whiteSpace=wrap;html=1;rounded=0;shadow=0;labelBackgroundColor=none;strokeColor=#000000;strokeWidth=1;fillColor=none;fontFamily=Verdana;fontSize=12;fontColor=#000000;align=center;comic=1;" vertex="1" parent="1">
          <mxGeometry x="960" y="200" width="400" height="440" as="geometry" />
        </mxCell>
        <mxCell id="WiNpmOKyQzlzaw_CeeK8-91" value="" style="whiteSpace=wrap;html=1;rounded=0;shadow=0;labelBackgroundColor=none;strokeColor=#000000;strokeWidth=1;fillColor=none;fontFamily=Verdana;fontSize=12;fontColor=#000000;align=center;comic=1;" vertex="1" parent="1">
          <mxGeometry x="1420" y="200" width="400" height="440" as="geometry" />
        </mxCell>
        <mxCell id="WiNpmOKyQzlzaw_CeeK8-92" value="" style="whiteSpace=wrap;html=1;rounded=0;shadow=0;labelBackgroundColor=none;strokeColor=#000000;strokeWidth=1;fillColor=none;fontFamily=Verdana;fontSize=12;fontColor=#000000;align=center;comic=1;" vertex="1" parent="1">
          <mxGeometry x="1880" y="200" width="400" height="440" as="geometry" />
        </mxCell>
        <mxCell id="WiNpmOKyQzlzaw_CeeK8-94" value="NEWS" style="whiteSpace=wrap;html=1;rounded=0;shadow=0;labelBackgroundColor=none;strokeWidth=1;fontFamily=Verdana;fontSize=28;align=center;comic=1;" vertex="1" parent="1">
          <mxGeometry x="1150" y="280" width="190" height="50" as="geometry" />
        </mxCell>
        <mxCell id="WiNpmOKyQzlzaw_CeeK8-95" value="" style="line;strokeWidth=1;html=1;rounded=0;shadow=0;labelBackgroundColor=none;fillColor=none;fontFamily=Verdana;fontSize=14;fontColor=#000000;align=center;comic=1;" vertex="1" parent="1">
          <mxGeometry x="910" y="680" width="1400" height="10" as="geometry" />
        </mxCell>
        <mxCell id="WiNpmOKyQzlzaw_CeeK8-102" value="DETAILS" style="whiteSpace=wrap;html=1;rounded=0;shadow=0;labelBackgroundColor=none;strokeWidth=1;fontFamily=Verdana;fontSize=28;align=center;comic=1;" vertex="1" parent="1">
          <mxGeometry x="990" y="540" width="190" height="50" as="geometry" />
        </mxCell>
        <mxCell id="WiNpmOKyQzlzaw_CeeK8-103" value="NEWS" style="whiteSpace=wrap;html=1;rounded=0;shadow=0;labelBackgroundColor=none;strokeWidth=1;fontFamily=Verdana;fontSize=28;align=center;comic=1;" vertex="1" parent="1">
          <mxGeometry x="1610" y="280" width="190" height="50" as="geometry" />
        </mxCell>
        <mxCell id="WiNpmOKyQzlzaw_CeeK8-104" value="DETAILS" style="whiteSpace=wrap;html=1;rounded=0;shadow=0;labelBackgroundColor=none;strokeWidth=1;fontFamily=Verdana;fontSize=28;align=center;comic=1;" vertex="1" parent="1">
          <mxGeometry x="1440" y="540" width="190" height="50" as="geometry" />
        </mxCell>
        <mxCell id="WiNpmOKyQzlzaw_CeeK8-105" value="DETAILS" style="whiteSpace=wrap;html=1;rounded=0;shadow=0;labelBackgroundColor=none;strokeWidth=1;fontFamily=Verdana;fontSize=28;align=center;comic=1;" vertex="1" parent="1">
          <mxGeometry x="1900" y="540" width="190" height="50" as="geometry" />
        </mxCell>
        <mxCell id="WiNpmOKyQzlzaw_CeeK8-106" value="NEWS" style="whiteSpace=wrap;html=1;rounded=0;shadow=0;labelBackgroundColor=none;strokeWidth=1;fontFamily=Verdana;fontSize=28;align=center;comic=1;" vertex="1" parent="1">
          <mxGeometry x="2070" y="280" width="190" height="50" as="geometry" />
        </mxCell>
        <mxCell id="WiNpmOKyQzlzaw_CeeK8-107" value="LOGO" style="whiteSpace=wrap;html=1;rounded=0;shadow=0;labelBackgroundColor=none;strokeWidth=1;fontFamily=Verdana;fontSize=28;align=center;comic=1;" vertex="1" parent="1">
          <mxGeometry x="930" y="710" width="190" height="50" as="geometry" />
        </mxCell>
        <mxCell id="WiNpmOKyQzlzaw_CeeK8-108" value="&lt;font style=&quot;font-size: 14px;&quot;&gt;Agile Software Management System&lt;/font&gt;" style="text;html=1;strokeColor=none;fillColor=none;align=center;verticalAlign=middle;whiteSpace=wrap;rounded=0;" vertex="1" parent="1">
          <mxGeometry x="910" y="770" width="270" height="30" as="geometry" />
        </mxCell>
        <mxCell id="WiNpmOKyQzlzaw_CeeK8-109" value="© E-Pharmacist, Autumn Semester, 2023" style="text;html=1;strokeColor=none;fillColor=none;align=center;verticalAlign=middle;whiteSpace=wrap;rounded=0;" vertex="1" parent="1">
          <mxGeometry x="2040" y="760" width="270" height="30" as="geometry" />
        </mxCell>
        <mxCell id="WiNpmOKyQzlzaw_CeeK8-110" value="ALL NEWS" style="whiteSpace=wrap;html=1;rounded=0;shadow=0;labelBackgroundColor=none;strokeWidth=1;fontFamily=Verdana;fontSize=28;align=center;comic=1;" vertex="1" parent="1">
          <mxGeometry x="910" y="1000" width="190" height="50" as="geometry" />
        </mxCell>
        <mxCell id="WiNpmOKyQzlzaw_CeeK8-111" value="" style="line;strokeWidth=1;html=1;rounded=0;shadow=0;labelBackgroundColor=none;fillColor=none;fontFamily=Verdana;fontSize=14;fontColor=#000000;align=center;comic=1;" vertex="1" parent="1">
          <mxGeometry x="910" y="1070" width="1400" height="10" as="geometry" />
        </mxCell>
        <mxCell id="WiNpmOKyQzlzaw_CeeK8-112" value="" style="whiteSpace=wrap;html=1;rounded=0;shadow=0;labelBackgroundColor=none;strokeColor=#000000;strokeWidth=1;fillColor=none;fontFamily=Verdana;fontSize=12;fontColor=#000000;align=center;comic=1;" vertex="1" parent="1">
          <mxGeometry x="900" y="970" width="1410" height="750" as="geometry" />
        </mxCell>
        <mxCell id="WiNpmOKyQzlzaw_CeeK8-113" style="edgeStyle=orthogonalEdgeStyle;rounded=0;orthogonalLoop=1;jettySize=auto;html=1;exitX=0.5;exitY=1;exitDx=0;exitDy=0;" edge="1" source="WiNpmOKyQzlzaw_CeeK8-112" target="WiNpmOKyQzlzaw_CeeK8-112" parent="1">
          <mxGeometry relative="1" as="geometry" />
        </mxCell>
        <mxCell id="WiNpmOKyQzlzaw_CeeK8-116" value="LOGO" style="whiteSpace=wrap;html=1;rounded=0;shadow=0;labelBackgroundColor=none;strokeWidth=1;fontFamily=Verdana;fontSize=28;align=center;comic=1;" vertex="1" parent="1">
          <mxGeometry x="2110" y="1000" width="190" height="50" as="geometry" />
        </mxCell>
        <mxCell id="WiNpmOKyQzlzaw_CeeK8-118" value="" style="whiteSpace=wrap;html=1;rounded=0;shadow=0;labelBackgroundColor=none;strokeColor=#000000;strokeWidth=1;fillColor=none;fontFamily=Verdana;fontSize=12;fontColor=#000000;align=center;comic=1;" vertex="1" parent="1">
          <mxGeometry x="1180" y="1125" width="870" height="440" as="geometry" />
        </mxCell>
        <mxCell id="WiNpmOKyQzlzaw_CeeK8-121" value="" style="line;strokeWidth=1;html=1;rounded=0;shadow=0;labelBackgroundColor=none;fillColor=none;fontFamily=Verdana;fontSize=14;fontColor=#000000;align=center;comic=1;" vertex="1" parent="1">
          <mxGeometry x="900" y="1600" width="1400" height="10" as="geometry" />
        </mxCell>
        <mxCell id="WiNpmOKyQzlzaw_CeeK8-127" value="LOGO" style="whiteSpace=wrap;html=1;rounded=0;shadow=0;labelBackgroundColor=none;strokeWidth=1;fontFamily=Verdana;fontSize=28;align=center;comic=1;" vertex="1" parent="1">
          <mxGeometry x="920" y="1630" width="190" height="50" as="geometry" />
        </mxCell>
        <mxCell id="WiNpmOKyQzlzaw_CeeK8-128" value="&lt;font style=&quot;font-size: 14px;&quot;&gt;Agile Software Management System&lt;/font&gt;" style="text;html=1;strokeColor=none;fillColor=none;align=center;verticalAlign=middle;whiteSpace=wrap;rounded=0;" vertex="1" parent="1">
          <mxGeometry x="900" y="1690" width="270" height="30" as="geometry" />
        </mxCell>
        <mxCell id="WiNpmOKyQzlzaw_CeeK8-129" value="© E-Pharmacist, Autumn Semester, 2023" style="text;html=1;strokeColor=none;fillColor=none;align=center;verticalAlign=middle;whiteSpace=wrap;rounded=0;" vertex="1" parent="1">
          <mxGeometry x="2030" y="1680" width="270" height="30" as="geometry" />
        </mxCell>
        <mxCell id="WiNpmOKyQzlzaw_CeeK8-132" value="&lt;font style=&quot;font-size: 36px;&quot;&gt;LOG INTO YOUR ACCOUNT&lt;/font&gt;" style="text;html=1;strokeColor=none;fillColor=none;align=center;verticalAlign=middle;whiteSpace=wrap;rounded=0;" vertex="1" parent="1">
          <mxGeometry x="1320" y="1160" width="660" height="30" as="geometry" />
        </mxCell>
        <mxCell id="WiNpmOKyQzlzaw_CeeK8-134" value="&lt;font style=&quot;font-size: 24px;&quot;&gt;Email Address&lt;/font&gt;" style="text;html=1;strokeColor=none;fillColor=none;align=center;verticalAlign=middle;whiteSpace=wrap;rounded=0;" vertex="1" parent="1">
          <mxGeometry x="985" y="1220" width="660" height="30" as="geometry" />
        </mxCell>
        <mxCell id="WiNpmOKyQzlzaw_CeeK8-135" value="" style="whiteSpace=wrap;html=1;rounded=0;shadow=0;labelBackgroundColor=none;strokeWidth=1;fontFamily=Verdana;fontSize=28;align=center;comic=1;" vertex="1" parent="1">
          <mxGeometry x="1240" y="1260" width="600" height="50" as="geometry" />
        </mxCell>
        <mxCell id="WiNpmOKyQzlzaw_CeeK8-137" value="&lt;font style=&quot;font-size: 24px;&quot;&gt;Password&lt;/font&gt;" style="text;html=1;strokeColor=none;fillColor=none;align=center;verticalAlign=middle;whiteSpace=wrap;rounded=0;" vertex="1" parent="1">
          <mxGeometry x="960" y="1340" width="660" height="30" as="geometry" />
        </mxCell>
        <mxCell id="WiNpmOKyQzlzaw_CeeK8-138" value="" style="whiteSpace=wrap;html=1;rounded=0;shadow=0;labelBackgroundColor=none;strokeWidth=1;fontFamily=Verdana;fontSize=28;align=center;comic=1;" vertex="1" parent="1">
          <mxGeometry x="1240" y="1380" width="600" height="50" as="geometry" />
        </mxCell>
        <mxCell id="WiNpmOKyQzlzaw_CeeK8-139" value="LOGIN" style="whiteSpace=wrap;html=1;rounded=0;shadow=0;labelBackgroundColor=none;strokeWidth=1;fontFamily=Verdana;fontSize=28;align=center;comic=1;fillColor=#1ba1e2;fontColor=#ffffff;strokeColor=#006EAF;" vertex="1" parent="1">
          <mxGeometry x="1240" y="1500" width="165" height="50" as="geometry" />
        </mxCell>
        <mxCell id="WiNpmOKyQzlzaw_CeeK8-140" value="ALL NEWS" style="whiteSpace=wrap;html=1;rounded=0;shadow=0;labelBackgroundColor=none;strokeWidth=1;fontFamily=Verdana;fontSize=28;align=center;comic=1;" vertex="1" parent="1">
          <mxGeometry x="925" y="1880" width="190" height="50" as="geometry" />
        </mxCell>
        <mxCell id="WiNpmOKyQzlzaw_CeeK8-141" value="" style="line;strokeWidth=1;html=1;rounded=0;shadow=0;labelBackgroundColor=none;fillColor=none;fontFamily=Verdana;fontSize=14;fontColor=#000000;align=center;comic=1;" vertex="1" parent="1">
          <mxGeometry x="925" y="1950" width="1400" height="10" as="geometry" />
        </mxCell>
        <mxCell id="WiNpmOKyQzlzaw_CeeK8-142" value="" style="whiteSpace=wrap;html=1;rounded=0;shadow=0;labelBackgroundColor=none;strokeColor=#000000;strokeWidth=1;fillColor=none;fontFamily=Verdana;fontSize=12;fontColor=#000000;align=center;comic=1;" vertex="1" parent="1">
          <mxGeometry x="915" y="1850" width="1410" height="850" as="geometry" />
        </mxCell>
        <mxCell id="WiNpmOKyQzlzaw_CeeK8-143" style="edgeStyle=orthogonalEdgeStyle;rounded=0;orthogonalLoop=1;jettySize=auto;html=1;exitX=0.5;exitY=1;exitDx=0;exitDy=0;" edge="1" source="WiNpmOKyQzlzaw_CeeK8-142" target="WiNpmOKyQzlzaw_CeeK8-142" parent="1">
          <mxGeometry relative="1" as="geometry" />
        </mxCell>
        <mxCell id="WiNpmOKyQzlzaw_CeeK8-144" value="LOGO" style="whiteSpace=wrap;html=1;rounded=0;shadow=0;labelBackgroundColor=none;strokeWidth=1;fontFamily=Verdana;fontSize=28;align=center;comic=1;" vertex="1" parent="1">
          <mxGeometry x="2125" y="1880" width="190" height="50" as="geometry" />
        </mxCell>
        <mxCell id="WiNpmOKyQzlzaw_CeeK8-145" value="" style="whiteSpace=wrap;html=1;rounded=0;shadow=0;labelBackgroundColor=none;strokeColor=#000000;strokeWidth=1;fillColor=none;fontFamily=Verdana;fontSize=12;fontColor=#000000;align=center;comic=1;" vertex="1" parent="1">
          <mxGeometry x="1195" y="2005" width="870" height="575" as="geometry" />
        </mxCell>
        <mxCell id="WiNpmOKyQzlzaw_CeeK8-146" value="" style="line;strokeWidth=1;html=1;rounded=0;shadow=0;labelBackgroundColor=none;fillColor=none;fontFamily=Verdana;fontSize=14;fontColor=#000000;align=center;comic=1;" vertex="1" parent="1">
          <mxGeometry x="915" y="2600" width="1400" height="10" as="geometry" />
        </mxCell>
        <mxCell id="WiNpmOKyQzlzaw_CeeK8-147" value="LOGO" style="whiteSpace=wrap;html=1;rounded=0;shadow=0;labelBackgroundColor=none;strokeWidth=1;fontFamily=Verdana;fontSize=28;align=center;comic=1;" vertex="1" parent="1">
          <mxGeometry x="930" y="2620" width="190" height="50" as="geometry" />
        </mxCell>
        <mxCell id="WiNpmOKyQzlzaw_CeeK8-148" value="&lt;font style=&quot;font-size: 14px;&quot;&gt;Agile Software Management System&lt;/font&gt;" style="text;html=1;strokeColor=none;fillColor=none;align=center;verticalAlign=middle;whiteSpace=wrap;rounded=0;" vertex="1" parent="1">
          <mxGeometry x="915" y="2670" width="270" height="30" as="geometry" />
        </mxCell>
        <mxCell id="WiNpmOKyQzlzaw_CeeK8-149" value="© E-Pharmacist, Autumn Semester, 2023" style="text;html=1;strokeColor=none;fillColor=none;align=center;verticalAlign=middle;whiteSpace=wrap;rounded=0;" vertex="1" parent="1">
          <mxGeometry x="2050" y="2660" width="270" height="30" as="geometry" />
        </mxCell>
        <mxCell id="WiNpmOKyQzlzaw_CeeK8-150" value="&lt;font style=&quot;font-size: 30px;&quot;&gt;CREATE A NEW ACCOUNT&lt;/font&gt;" style="text;html=1;strokeColor=none;fillColor=none;align=center;verticalAlign=middle;whiteSpace=wrap;rounded=0;" vertex="1" parent="1">
          <mxGeometry x="1335" y="2020" width="660" height="30" as="geometry" />
        </mxCell>
        <mxCell id="WiNpmOKyQzlzaw_CeeK8-151" value="&lt;font style=&quot;font-size: 18px;&quot;&gt;Name&lt;/font&gt;" style="text;html=1;strokeColor=none;fillColor=none;align=center;verticalAlign=middle;whiteSpace=wrap;rounded=0;" vertex="1" parent="1">
          <mxGeometry x="1190" y="2060" width="225" height="30" as="geometry" />
        </mxCell>
        <mxCell id="WiNpmOKyQzlzaw_CeeK8-152" value="" style="whiteSpace=wrap;html=1;rounded=0;shadow=0;labelBackgroundColor=none;strokeWidth=1;fontFamily=Verdana;fontSize=28;align=center;comic=1;" vertex="1" parent="1">
          <mxGeometry x="1280" y="2090" width="600" height="40" as="geometry" />
        </mxCell>
        <mxCell id="WiNpmOKyQzlzaw_CeeK8-157" value="&lt;font style=&quot;font-size: 18px;&quot;&gt;Email Address&lt;/font&gt;" style="text;html=1;strokeColor=none;fillColor=none;align=center;verticalAlign=middle;whiteSpace=wrap;rounded=0;" vertex="1" parent="1">
          <mxGeometry x="1220" y="2150" width="240" height="30" as="geometry" />
        </mxCell>
        <mxCell id="WiNpmOKyQzlzaw_CeeK8-158" style="edgeStyle=orthogonalEdgeStyle;rounded=0;orthogonalLoop=1;jettySize=auto;html=1;exitX=0.5;exitY=1;exitDx=0;exitDy=0;" edge="1" parent="1" source="WiNpmOKyQzlzaw_CeeK8-157" target="WiNpmOKyQzlzaw_CeeK8-157">
          <mxGeometry relative="1" as="geometry" />
        </mxCell>
        <mxCell id="WiNpmOKyQzlzaw_CeeK8-159" value="" style="whiteSpace=wrap;html=1;rounded=0;shadow=0;labelBackgroundColor=none;strokeWidth=1;fontFamily=Verdana;fontSize=28;align=center;comic=1;" vertex="1" parent="1">
          <mxGeometry x="1280" y="2180" width="600" height="40" as="geometry" />
        </mxCell>
        <mxCell id="WiNpmOKyQzlzaw_CeeK8-160" value="&lt;font style=&quot;font-size: 18px;&quot;&gt;Password&lt;/font&gt;" style="text;html=1;strokeColor=none;fillColor=none;align=center;verticalAlign=middle;whiteSpace=wrap;rounded=0;" vertex="1" parent="1">
          <mxGeometry x="1200" y="2240" width="240" height="30" as="geometry" />
        </mxCell>
        <mxCell id="WiNpmOKyQzlzaw_CeeK8-161" value="" style="whiteSpace=wrap;html=1;rounded=0;shadow=0;labelBackgroundColor=none;strokeWidth=1;fontFamily=Verdana;fontSize=28;align=center;comic=1;" vertex="1" parent="1">
          <mxGeometry x="1280" y="2270" width="600" height="40" as="geometry" />
        </mxCell>
        <mxCell id="WiNpmOKyQzlzaw_CeeK8-162" value="&lt;font style=&quot;font-size: 18px;&quot;&gt;Confirm Password&lt;/font&gt;" style="text;html=1;strokeColor=none;fillColor=none;align=center;verticalAlign=middle;whiteSpace=wrap;rounded=0;" vertex="1" parent="1">
          <mxGeometry x="1230" y="2330" width="250" height="30" as="geometry" />
        </mxCell>
        <mxCell id="WiNpmOKyQzlzaw_CeeK8-163" value="" style="whiteSpace=wrap;html=1;rounded=0;shadow=0;labelBackgroundColor=none;strokeWidth=1;fontFamily=Verdana;fontSize=28;align=center;comic=1;" vertex="1" parent="1">
          <mxGeometry x="1280" y="2360" width="600" height="40" as="geometry" />
        </mxCell>
        <mxCell id="WiNpmOKyQzlzaw_CeeK8-164" value="&lt;font style=&quot;font-size: 18px;&quot;&gt;Role&lt;/font&gt;" style="text;html=1;strokeColor=none;fillColor=none;align=center;verticalAlign=middle;whiteSpace=wrap;rounded=0;" vertex="1" parent="1">
          <mxGeometry x="1177.5" y="2420" width="250" height="30" as="geometry" />
        </mxCell>
        <mxCell id="WiNpmOKyQzlzaw_CeeK8-166" value="" style="ellipse;whiteSpace=wrap;html=1;aspect=fixed;gradientColor=default;" vertex="1" parent="1">
          <mxGeometry x="1280" y="2460" width="20" height="20" as="geometry" />
        </mxCell>
        <mxCell id="WiNpmOKyQzlzaw_CeeK8-168" value="&lt;font style=&quot;font-size: 18px;&quot;&gt;User&lt;/font&gt;" style="text;html=1;strokeColor=none;fillColor=none;align=center;verticalAlign=middle;whiteSpace=wrap;rounded=0;" vertex="1" parent="1">
          <mxGeometry x="1310" y="2455" width="47.5" height="30" as="geometry" />
        </mxCell>
        <mxCell id="WiNpmOKyQzlzaw_CeeK8-170" value="" style="ellipse;whiteSpace=wrap;html=1;aspect=fixed;gradientColor=default;" vertex="1" parent="1">
          <mxGeometry x="1405" y="2460" width="20" height="20" as="geometry" />
        </mxCell>
        <mxCell id="WiNpmOKyQzlzaw_CeeK8-171" value="&lt;font style=&quot;font-size: 18px;&quot;&gt;Subject Matter Expert&lt;/font&gt;" style="text;html=1;strokeColor=none;fillColor=none;align=center;verticalAlign=middle;whiteSpace=wrap;rounded=0;" vertex="1" parent="1">
          <mxGeometry x="1430" y="2455" width="190" height="30" as="geometry" />
        </mxCell>
        <mxCell id="WiNpmOKyQzlzaw_CeeK8-172" value="" style="ellipse;whiteSpace=wrap;html=1;aspect=fixed;gradientColor=default;" vertex="1" parent="1">
          <mxGeometry x="1655" y="2460" width="20" height="20" as="geometry" />
        </mxCell>
        <mxCell id="WiNpmOKyQzlzaw_CeeK8-173" value="&lt;font style=&quot;font-size: 18px;&quot;&gt;Pharmacist&lt;/font&gt;" style="text;html=1;strokeColor=none;fillColor=none;align=center;verticalAlign=middle;whiteSpace=wrap;rounded=0;" vertex="1" parent="1">
          <mxGeometry x="1640" y="2455" width="190" height="30" as="geometry" />
        </mxCell>
        <mxCell id="WiNpmOKyQzlzaw_CeeK8-174" value="SIGNUP" style="whiteSpace=wrap;html=1;rounded=0;shadow=0;labelBackgroundColor=none;strokeWidth=1;fontFamily=Verdana;fontSize=28;align=center;comic=1;fillColor=#1ba1e2;fontColor=#ffffff;strokeColor=#006EAF;" vertex="1" parent="1">
          <mxGeometry x="1280" y="2510" width="160" height="40" as="geometry" />
        </mxCell>
      </root>
    </mxGraphModel>
  </diagram>
</mxfile>
